Name	Protein identifier	Contig id	Start	Stop	Strand	Gene symbol	Sequence name	Scope	Element type	Element subtype	Class	Subclass	Method	Target length	Reference sequence length	% Coverage of reference sequence	% Identity to reference sequence	Alignment length	Accession of closest sequence	Name of closest sequence	HMM id	HMM description
GH-AOO-S48_S19	NA	NODE_11_length_73945_cov_5.853357	44611	44688	-	hld	delta-hemolysin	plus	VIRULENCE	VIRULENCE	NA	NA	EXACTX	26	26	100.00	100.00	26	AGU62139.1	delta-hemolysin	NA	NA
GH-AOO-S48_S19	NA	NODE_13_length_55041_cov_5.576244	37859	38791	+	lukE	bi-component leukocidin LukED subunit E	plus	VIRULENCE	VIRULENCE	NA	NA	BLASTX	311	311	100.00	99.36	311	RCV70079.1	bi-component leukocidin LukED subunit E	NA	NA
GH-AOO-S48_S19	NA	NODE_13_length_55041_cov_5.576244	38796	39776	+	lukD	bi-component leukocidin LukED subunit D	plus	VIRULENCE	VIRULENCE	NA	NA	BLASTX	327	327	100.00	94.50	327	CAA73668.1	bi-component leukocidin LukED subunit D	NA	NA
GH-AOO-S48_S19	NA	NODE_13_length_55041_cov_5.576244	51427	52131	+	splA	serine protease SplA	plus	VIRULENCE	VIRULENCE	NA	NA	BLASTX	235	235	100.00	99.57	235	ABD31004.1	serine protease SplA	NA	NA
GH-AOO-S48_S19	NA	NODE_13_length_55041_cov_5.576244	52259	52978	+	splB	serine protease SplB	plus	VIRULENCE	VIRULENCE	NA	NA	EXACTX	240	240	100.00	100.00	240	ABD31003.1	serine protease SplB	NA	NA
GH-AOO-S48_S19	NA	NODE_17_length_19895_cov_6.040008	1723	3162	-	lmrS	multidrug efflux MFS transporter LmrS	plus	STRESS	BIOCIDE	MACROLIDE/PHENICOL	CHLORAMPHENICOL/ERYTHROMYCIN	EXACTX	480	480	100.00	100.00	480	AAW38464.1	multidrug efflux MFS transporter LmrS	NA	NA
GH-AOO-S48_S19	NA	NODE_1_length_1034152_cov_6.335031	90334	90942	-	selX	staphylococcal enterotoxin-like toxin X	plus	VIRULENCE	VIRULENCE	NA	NA	BLASTX	203	203	100.00	96.55	203	AEI60187.1	staphylococcal enterotoxin-like toxin X	NA	NA
GH-AOO-S48_S19	NA	NODE_1_length_1034152_cov_6.335031	124120	125472	-	mepA	multidrug efflux MATE transporter MepA	plus	AMR	AMR	EFFLUX	EFFLUX	EXACTX	451	451	100.00	100.00	451	AAU95768.1	multidrug efflux MATE transporter MepA	NA	NA
GH-AOO-S48_S19	NA	NODE_1_length_1034152_cov_6.335031	350808	352157	-	tet(38)	tetracycline efflux MFS transporter Tet(38)	core	AMR	AMR	TETRACYCLINE	TETRACYCLINE	EXACTX	450	450	100.00	100.00	450	WP_001100300.1	tetracycline efflux MFS transporter Tet(38)	NA	NA
GH-AOO-S48_S19	NA	NODE_1_length_1034152_cov_6.335031	436605	437579	-	mecR1	beta-lactam sensor/signal transducer MecR1	core	AMR	AMR	BETA-LACTAM	METHICILLIN	PARTIALX	325	585	55.56	100.00	325	WP_000952923.1	beta-lactam sensor/signal transducer MecR1	NA	NA
GH-AOO-S48_S19	NA	NODE_1_length_1034152_cov_6.335031	437679	439682	+	mecA	PBP2a family beta-lactam-resistant peptidoglycan transpeptidase MecA	core	AMR	AMR	BETA-LACTAM	METHICILLIN	EXACTX	668	668	100.00	100.00	668	WP_000721310.1	PBP2a family beta-lactam-resistant peptidoglycan transpeptidase MecA	NA	NA
GH-AOO-S48_S19	NA	NODE_1_length_1034152_cov_6.335031	522121	523170	-	icaC	polysaccharide intercellular adhesin biosynthesis/export protein IcaC	plus	VIRULENCE	VIRULENCE	NA	NA	EXACTX	350	350	100.00	100.00	350	AUU58561.1	polysaccharide intercellular adhesin biosynthesis/export protein IcaC	NA	NA
GH-AOO-S48_S19	NA	NODE_1_length_1034152_cov_6.335031	566108	567634	+	aur	zinc metalloproteinase aureolysin	plus	VIRULENCE	VIRULENCE	NA	NA	BLASTX	509	509	100.00	99.21	509	EHO93748.1	zinc metalloproteinase aureolysin	NA	NA
GH-AOO-S48_S19	NA	NODE_1_length_1034152_cov_6.335031	805681	806655	-	hlgB	bi-component gamma-hemolysin HlgAB/HlgCB subunit B	plus	VIRULENCE	VIRULENCE	NA	NA	BLASTX	325	325	100.00	97.54	325	CAA57278.1	bi-component gamma-hemolysin HlgAB/HlgCB subunit B	NA	NA
GH-AOO-S48_S19	NA	NODE_1_length_1034152_cov_6.335031	806660	807604	-	hlgC	bi-component gamma-hemolysin HlgCB subunit C	plus	VIRULENCE	VIRULENCE	NA	NA	BLASTX	315	315	100.00	97.14	315	CAA57277.1	bi-component gamma-hemolysin HlgCB subunit C	NA	NA
GH-AOO-S48_S19	NA	NODE_1_length_1034152_cov_6.335031	808175	809101	-	hlgA	bi-component gamma-hemolysin HlgAB subunit A	plus	VIRULENCE	VIRULENCE	NA	NA	EXACTX	309	309	100.00	100.00	309	AUU54669.1	bi-component gamma-hemolysin HlgAB subunit A	NA	NA
GH-AOO-S48_S19	NA	NODE_1_length_1034152_cov_6.335031	898611	899027	-	fosB	FosB1/FosB3 family fosfomycin resistance bacillithiol transferase	core	AMR	AMR	FOSFOMYCIN	FOSFOMYCIN	EXACTX	139	139	100.00	100.00	139	WP_000920239.1	FosB1/FosB3 family fosfomycin resistance bacillithiol transferase	NA	NA
GH-AOO-S48_S19	NA	NODE_3_length_227712_cov_5.672022	130694	131473	+	sep	staphylococcal enterotoxin type P	plus	VIRULENCE	VIRULENCE	NA	NA	EXACTX	260	260	100.00	100.00	260	ADC38120.1	staphylococcal enterotoxin type P	NA	NA
GH-AOO-S48_S19	NA	NODE_3_length_227712_cov_5.672022	133279	133767	+	sak	staphylokinase	plus	VIRULENCE	VIRULENCE	NA	NA	EXACTX	163	163	100.00	100.00	163	CAA24957.1	staphylokinase	NA	NA
GH-AOO-S48_S19	NA	NODE_3_length_227712_cov_5.672022	135267	135614	+	scn	complement inhibitor SCIN-A	plus	VIRULENCE	VIRULENCE	NA	NA	EXACTX	116	116	100.00	100.00	116	ADL23798.1	complement inhibitor SCIN-A	NA	NA
GH-AOO-S48_S19	NA	NODE_3_length_227712_cov_5.672022	156786	157628	-	blaZ	penicillin-hydrolyzing class A beta-lactamase BlaZ	core	AMR	AMR	BETA-LACTAM	BETA-LACTAM	BLASTX	281	281	100.00	94.31	281	WP_000733281.1	penicillin-hydrolyzing class A beta-lactamase BlaZ	NA	NA
GH-AOO-S48_S19	NA	NODE_3_length_227712_cov_5.672022	159482	159859	+	blaI	penicillinase repressor BlaI	core	AMR	AMR	BETA-LACTAM	BETA-LACTAM	BLASTX	126	126	100.00	96.83	126	WP_001284656.1	penicillinase repressor BlaI	NA	NA
GH-AOO-S48_S19	NA	NODE_4_length_174231_cov_5.197597	79853	80602	-	sel26	staphylococcal enterotoxin type 26	plus	VIRULENCE	VIRULENCE	NA	NA	BLASTX	250	250	100.00	96.80	250	KAG18833.1	staphylococcal enterotoxin type 26	NA	NA
GH-AOO-S48_S19	NA	NODE_5_length_172075_cov_6.005611	23530	24024	-	dfrG	trimethoprim-resistant dihydrofolate reductase DfrG	core	AMR	AMR	TRIMETHOPRIM	TRIMETHOPRIM	EXACTX	165	165	100.00	100.00	165	WP_000868795.1	trimethoprim-resistant dihydrofolate reductase DfrG	NA	NA
