Name	Protein identifier	Contig id	Start	Stop	Strand	Gene symbol	Sequence name	Scope	Element type	Element subtype	Class	Subclass	Method	Target length	Reference sequence length	% Coverage of reference sequence	% Identity to reference sequence	Alignment length	Accession of closest sequence	Name of closest sequence	HMM id	HMM description
GH-AOO-S62_S6	NA	NODE_10_length_62230_cov_44.697176	60689	62038	+	tet(38)	tetracycline efflux MFS transporter Tet(38)	core	AMR	AMR	TETRACYCLINE	TETRACYCLINE	EXACTX	450	450	100.00	100.00	450	WP_001100293.1	tetracycline efflux MFS transporter Tet(38)	NA	NA
GH-AOO-S62_S6	NA	NODE_11_length_58040_cov_40.167273	49155	49502	-	scn	complement inhibitor SCIN-A	plus	VIRULENCE	VIRULENCE	NA	NA	BLASTX	116	116	100.00	99.14	116	ADL23798.1	complement inhibitor SCIN-A	NA	NA
GH-AOO-S62_S6	NA	NODE_11_length_58040_cov_40.167273	51714	52202	-	sak	staphylokinase	plus	VIRULENCE	VIRULENCE	NA	NA	BLASTX	163	163	100.00	99.39	163	CAA24957.1	staphylokinase	NA	NA
GH-AOO-S62_S6	NA	NODE_13_length_45495_cov_40.243263	15388	15465	-	hld	delta-hemolysin	plus	VIRULENCE	VIRULENCE	NA	NA	EXACTX	26	26	100.00	100.00	26	AGU62139.1	delta-hemolysin	NA	NA
GH-AOO-S62_S6	NA	NODE_16_length_40961_cov_42.431077	26080	26457	-	blaI	penicillinase repressor BlaI	core	AMR	AMR	BETA-LACTAM	BETA-LACTAM	EXACTX	126	126	100.00	100.00	126	WP_001284656.1	penicillinase repressor BlaI	NA	NA
GH-AOO-S62_S6	NA	NODE_16_length_40961_cov_42.431077	26450	28204	-	blaR1	beta-lactam sensor/signal transducer BlaR1	core	AMR	AMR	BETA-LACTAM	BETA-LACTAM	BLASTX	585	585	100.00	99.83	585	WP_001096376.1	beta-lactam sensor/signal transducer BlaR1	NA	NA
GH-AOO-S62_S6	NA	NODE_16_length_40961_cov_42.431077	28311	29153	+	blaPC1	BlaZ family penicillin-hydrolyzing class A beta-lactamase PC1	core	AMR	AMR	BETA-LACTAM	BETA-LACTAM	ALLELEX	281	281	100.00	100.00	281	WP_000733283.1	BlaZ family penicillin-hydrolyzing class A beta-lactamase PC1	NA	NA
GH-AOO-S62_S6	NA	NODE_1_length_513974_cov_36.489777	501997	502710	-	splE	serine protease SplE	plus	VIRULENCE	VIRULENCE	NA	NA	BLASTX	238	238	100.00	96.64	238	ABD30999.1	serine protease SplE	NA	NA
GH-AOO-S62_S6	NA	NODE_1_length_513974_cov_36.489777	511036	511968	-	lukE	bi-component leukocidin LukED subunit E	plus	VIRULENCE	VIRULENCE	NA	NA	BLASTX	311	311	100.00	99.36	311	RCV70079.1	bi-component leukocidin LukED subunit E	NA	NA
GH-AOO-S62_S6	NA	NODE_3_length_346200_cov_42.563747	107249	108223	-	hlgB	bi-component gamma-hemolysin HlgAB/HlgCB subunit B	plus	VIRULENCE	VIRULENCE	NA	NA	BLASTX	325	325	100.00	99.69	325	CAA57278.1	bi-component gamma-hemolysin HlgAB/HlgCB subunit B	NA	NA
GH-AOO-S62_S6	NA	NODE_3_length_346200_cov_42.563747	108228	109172	-	hlgC	bi-component gamma-hemolysin HlgCB subunit C	plus	VIRULENCE	VIRULENCE	NA	NA	BLASTX	315	315	100.00	98.41	315	CAA57277.1	bi-component gamma-hemolysin HlgCB subunit C	NA	NA
GH-AOO-S62_S6	NA	NODE_3_length_346200_cov_42.563747	109725	110651	-	hlgA	bi-component gamma-hemolysin HlgAB subunit A	plus	VIRULENCE	VIRULENCE	NA	NA	BLASTX	309	309	100.00	99.35	309	AUU54669.1	bi-component gamma-hemolysin HlgAB subunit A	NA	NA
GH-AOO-S62_S6	NA	NODE_3_length_346200_cov_42.563747	342942	344381	+	lmrS	multidrug efflux MFS transporter LmrS	plus	STRESS	BIOCIDE	MACROLIDE/PHENICOL	CHLORAMPHENICOL/ERYTHROMYCIN	BLASTX	480	480	100.00	96.88	480	AAW38464.1	multidrug efflux MFS transporter LmrS	NA	NA
GH-AOO-S62_S6	NA	NODE_4_length_249472_cov_44.352747	76231	77280	-	icaC	polysaccharide intercellular adhesin biosynthesis/export protein IcaC	plus	VIRULENCE	VIRULENCE	NA	NA	BLASTX	350	350	100.00	98.57	350	AUU58561.1	polysaccharide intercellular adhesin biosynthesis/export protein IcaC	NA	NA
GH-AOO-S62_S6	NA	NODE_4_length_249472_cov_44.352747	124024	125550	+	aur	zinc metalloproteinase aureolysin	plus	VIRULENCE	VIRULENCE	NA	NA	BLASTX	509	509	100.00	93.91	509	EHO93748.1	zinc metalloproteinase aureolysin	NA	NA
GH-AOO-S62_S6	NA	NODE_7_length_141570_cov_43.218064	77091	78446	+	glpT_A100V	Staphylococcus aureus fosfomycin resistant GlpT	core	AMR	POINT	FOSFOMYCIN	FOSFOMYCIN	POINTX	452	452	100.00	99.78	452	WP_001010111.1	glycerol-3-phosphate transporter GlpT	NA	NA
GH-AOO-S62_S6	NA	NODE_7_length_141570_cov_43.218064	79078	80430	-	mepA	multidrug efflux MATE transporter MepA	plus	AMR	AMR	EFFLUX	EFFLUX	BLASTX	451	451	100.00	98.23	451	BAB41547.1	multidrug efflux MATE transporter MepA	NA	NA
GH-AOO-S62_S6	NA	NODE_9_length_73281_cov_40.652132	34821	36083	+	murA_D278E	Staphylococcus aureus fosfomycin resistant MurA	core	AMR	POINT	FOSFOMYCIN	FOSFOMYCIN	POINTX	421	421	100.00	99.52	421	WP_000358006.1	UDP-N-acetylglucosamine 1-carboxyvinyltransferase MurA	NA	NA
GH-AOO-S62_S6	NA	NODE_9_length_73281_cov_40.652132	34821	36083	+	murA_E291D	Staphylococcus aureus fosfomycin resistant MurA	core	AMR	POINT	FOSFOMYCIN	FOSFOMYCIN	POINTX	421	421	100.00	99.52	421	WP_000358006.1	UDP-N-acetylglucosamine 1-carboxyvinyltransferase MurA	NA	NA
